{
  "name": "Message",
  "plural": "messages",
  "base": "PersistedModel",
  "idInjection": true,
  "options": {
    "validateUpsert": true
  },
  "hidden": [
    "id"
  ],
  "properties": {
    "content": {
      "type": "string"      
    },
    "templateName": {
      "type": "string",
      "default": "generic"
    },
    "templateContent": {
      "type": "object"
    },
    "posted_on": {
      "type": "date"
    }
  },
  "validations": [],
  "relations": {
    "chatUser": {
      "type": "belongsTo",
      "model": "ChatUser",
      "foreignKey": ""
    },
    "room": {
      "type": "belongsTo",
      "model": "Room",
      "foreignKey": "roomId"
    }
  },
  "acls": [
    {
      "accessType": "*",
      "principalType": "ROLE",
      "principalId": "$everyone",
      "permission": "DENY"
    },
    {
      "accessType": "*",
      "principalType": "ROLE",
      "principalId": "$authenticated",
      "permission": "ALLOW"
    },
    {
      "accessType": "EXECUTE",
      "principalType": "ROLE",
      "principalId": "$authenticated",
      "permission": "ALLOW",
      "property": "sendmessage"
    }
  ],
  "methods": {}
}
