{
  "name": "Topic",
  "plural": "topics",
  "base": "PersistedModel",
  "idInjection": true,
  "options": {
    "validateUpsert": true
  },
  "properties": {
    "name": {
      "type": "string",
      "required": true
    },
    "topicId": {
      "type": "string",
      "id": true,
      "generated": true
    }
  },
  "validations": [],
  "relations": {
    "problems": {
      "type": "hasMany",
      "model": "ProblemType",
      "foreignKey": "typeId"
    },
    "category": {
      "type": "belongsTo",
      "model": "Category",
      "foreignKey": "categoryId"
    }
  },
  "acls": [],
  "methods": {}
}
